{
  "type": "service_account",
  "project_id": "the-ai-gang-398310",
  "private_key_id": "a21a0e02288e97e4919e965b8775b42ba446216e",
  "private_key": "-----BEGIN PRIVATE KEY-----\nMIIEvgIBADANBgkqhkiG9w0BAQEFAASCBKgwggSkAgEAAoIBAQCxuImCSgaTzfbs\nMbr2w9C5n9x4zHyHSdEYYqLfv9p0K+N7OQoT/QLNyiiGOt+0avl6aCsDnA481vd0\nmV0UYlbYxdmsr0qZECX7cPqhVu5DkE1ZVdiHcMce+NeY7luUmRnG7l6/Hf6a5p4h\n2ti9JWx0+7l1M4vDceC8552f/7SQm/JHb545QqkeqBkMrReiPloAS8fmgYIj/Kqv\nNiWKjrSF1jX0buPS1mJjvvoLvSshKAwtM7+sbAa3QQFQiRSMRN8RRdmZSHXgZAAE\nTvAJy5IrfV2Y8pe5h01Vt12PsXoSc2ahf4kxPfgBxXgjJK6gTBSuOo2OwNI6/Oz/\nakgW++0BAgMBAAECggEABzX+vVa51Ngx7UQ4yu+nycpU2KFqaZZbCa9h3qyDBXzs\n5FhsgmJdEWLDGWws3L4M7JSqryEvOjR6MqTQ4CV70tyXQBCWOSbstZqwTqjPbtYd\nb1Mif59ZsvXjkJDWTi2WnEnadgx2YsxZ7PN7YRRSRd5bWGgsovPdS6jlrkLirY3W\n6HUC2QfqS3Aei8CahKXnxVnA3DK1AaILN+26yncJnKiYZTHAmt5V2lNe3jjMHVo0\nnoHgx/ovcnfdLgWtS16vvf4EUCs30rCcHL5PEWKCleYSGdJOPmehoRQMeHnC4qpS\nbsr6GcC8D06Lx6mhp6EOQiefJ1HoycE6Z54utfUReQKBgQDqR4YeEP+kX0D/5ffr\n7z6mRULJLWfeXDmfFBrGTD92QvGWGibnm7C33gjHKl83xy0Ayc7+0hcdXjqkddgD\n526Xr/DGeLOjF6a2faQgTboCp6Ldt1p5agYx7BoCBTV9BSZfMeTPYYmHMKjjzz3b\nngL6rWh+EZYURZqVaJD4pyH9iQKBgQDCMqGdtXSzJaDKfCvJxzMF4ung97HZwZ6l\nB8qRAmuvK3eH3XGnghzlY6uEmDVNpwoytP8iXdSvIun44u/N1qXRq46wNrV8Ciad\nt961Vl+dv4DSa8cqScnD6r8uN+uqaMaTS+VlLYzRkQUtSMdZSJ3Cge7mhMdISTYv\nmlq6j/3NuQKBgQDHRKTH6A95AOgpgLI6RJlWFW0z7mH9mRYNv6zyY6JK9a/Ey2Ox\n9hP+oGV4+gpZSBl4JS7iQVIV0bMxdWaSE4RWkvjJ55prq09Kw10ZeOMxJOL7kNvs\nj4jLZ5XLiCCxwPKdX7PNzJmMmo/cjMaBiUnhbCOHr2+muHk+gd1lEctweQKBgA9T\nV5XOoCsTKSFRs1L1OX2ZbsOmSI7azN5RQxc2jbEBSSmbvEBv8D/aIcsRCAPczt05\nk3ju1r4Lj1No9WvVKLjnRRd6+c+ULX/85sKA0oLsfgodH1ajBB1GBVhsaVjFdAZj\n0vKtKZPQUgxE1hahuHGFN4lRqTh3LqOLFuXqPylhAoGBAM+WWSlsA5apd7C3VC2b\nSlLMWsFWK8Qn5F9VJ4k3ZOrZoa02sK9k82wRTPRBcypgQJmKbZRV4DQf7fkNx3z8\naifenN3yOdHuysIMqbzu7EpLZb7zZ7v+Fb5OwP/eleS0S08QwEkJuL1jmN5EB22t\nWKU8me1uY6zQhueo+M86LNzD\n-----END PRIVATE KEY-----\n",
  "client_email": "firebase-adminsdk-b3k45@the-ai-gang-398310.iam.gserviceaccount.com",
  "client_id": "102962781246175493020",
  "auth_uri": "https://accounts.google.com/o/oauth2/auth",
  "token_uri": "https://oauth2.googleapis.com/token",
  "auth_provider_x509_cert_url": "https://www.googleapis.com/oauth2/v1/certs",
  "client_x509_cert_url": "https://www.googleapis.com/robot/v1/metadata/x509/firebase-adminsdk-b3k45%40the-ai-gang-398310.iam.gserviceaccount.com",
  "universe_domain": "googleapis.com"
}
